{
    "tickets": [
      {
        "moveId": "c4bfd915-29f5-44a9-85a9-0ffab10edcbc",
        "userId": "4d26d8c9-065e-4158-a2ae-3d4ba8657483",
        "seatNumber": 18,
        "price": 26,
        "showtime": "2024-02-12T08:01:00.240Z"
      },
      {
        "moveId": "ee83fcfc-b893-43e9-8974-23234dc6c6ad",
        "userId": "1b7e1f35-6749-4f10-a931-52b9a5e162fc",
        "seatNumber": 3,
        "price": 15,
        "showtime": "2024-07-12T20:35:51.052Z"
      }
    ]
  }